{"level":"\u001b[32minfo\u001b[39m","message":"HTTP GET /","meta":{"req":{"headers":{"accept":"*/*","user-agent":"Mozilla/5.0 (compatible; Nimbostratus-Bot/v1.3.2; http://cloudsystemnetworks.com)"},"httpVersion":"1.0","method":"GET","originalUrl":"/","query":{},"url":"/"},"res":{"body":"<!DOCTYPE html>\n<html lang=\"en\">\n<head>\n<meta charset=\"utf-8\">\n<title>Error</title>\n</head>\n<body>\n<pre>Cannot GET /</pre>\n</body>\n</html>\n","statusCode":404},"responseTime":3}}
{"level":"\u001b[32minfo\u001b[39m","message":"HTTP GET /","meta":{"req":{"headers":{"accept":"*/*","user-agent":"NetSystemsResearch studies the availability of various services across the internet. Our website is netsystemsresearch.com"},"httpVersion":"1.0","method":"GET","originalUrl":"/","query":{},"url":"/"},"res":{"body":"<!DOCTYPE html>\n<html lang=\"en\">\n<head>\n<meta charset=\"utf-8\">\n<title>Error</title>\n</head>\n<body>\n<pre>Cannot GET /</pre>\n</body>\n</html>\n","statusCode":404},"responseTime":5}}
{"level":"\u001b[32minfo\u001b[39m","message":"HTTP GET /api/v2/swagger.json","meta":{"req":{"headers":{"accept":"*/*","accept-encoding":"gzip","host":"13.56.117.240:3000","user-agent":"Mozilla/5.0 (Windows NT 10.0; Win64; x64) AppleWebKit/537.36 (KHTML, like Gecko) Chrome/80.0.3987.122 Safari/537.36"},"httpVersion":"1.1","method":"GET","originalUrl":"/api/v2/swagger.json","query":{},"url":"/api/v2/swagger.json"},"res":{"body":"<!DOCTYPE html>\n<html lang=\"en\">\n<head>\n<meta charset=\"utf-8\">\n<title>Error</title>\n</head>\n<body>\n<pre>Cannot GET /api/v2/swagger.json</pre>\n</body>\n</html>\n","statusCode":404},"responseTime":1}}
