{"meta":{"req":{"url":"/","headers":{},"method":"HEAD","httpVersion":"1.0","originalUrl":"/","query":{}},"res":{"statusCode":404},"responseTime":7},"level":"\u001b[32minfo\u001b[39m","message":"HTTP HEAD /"}
{"meta":{"req":{"url":"/","headers":{"host":"13.56.117.240:3000"},"method":"GET","httpVersion":"1.1","originalUrl":"/","query":{}},"res":{"statusCode":404,"body":"<!DOCTYPE html>\n<html lang=\"en\">\n<head>\n<meta charset=\"utf-8\">\n<title>Error</title>\n</head>\n<body>\n<pre>Cannot GET /</pre>\n</body>\n</html>\n"},"responseTime":4},"level":"\u001b[32minfo\u001b[39m","message":"HTTP GET /"}
{"meta":{"req":{"url":"/","headers":{"host":"13.56.117.240:3000"},"method":"GET","httpVersion":"1.1","originalUrl":"/","query":{}},"res":{"statusCode":404,"body":"<!DOCTYPE html>\n<html lang=\"en\">\n<head>\n<meta charset=\"utf-8\">\n<title>Error</title>\n</head>\n<body>\n<pre>Cannot GET /</pre>\n</body>\n</html>\n"},"responseTime":4},"level":"\u001b[32minfo\u001b[39m","message":"HTTP GET /"}
{"meta":{"req":{"url":"/","headers":{"user-agent":"Mozilla/5.0 (compatible; Nimbostratus-Bot/v1.3.2; http://cloudsystemnetworks.com)","accept":"*/*"},"method":"GET","httpVersion":"1.0","originalUrl":"/","query":{}},"res":{"statusCode":404,"body":"<!DOCTYPE html>\n<html lang=\"en\">\n<head>\n<meta charset=\"utf-8\">\n<title>Error</title>\n</head>\n<body>\n<pre>Cannot GET /</pre>\n</body>\n</html>\n"},"responseTime":4},"level":"\u001b[32minfo\u001b[39m","message":"HTTP GET /"}
